('C:\\Users\\JavierSanchez\\Desktop\\Desafio\\build\\00039315\\PKG-00.pkg',
 {'BINARY': 1,
  'DATA': 1,
  'EXECUTABLE': 1,
  'EXTENSION': 1,
  'PYMODULE': 1,
  'PYSOURCE': 1,
  'PYZ': 0},
 [('PYZ-00.pyz',
   'C:\\Users\\JavierSanchez\\Desktop\\Desafio\\build\\00039315\\PYZ-00.pyz',
   'PYZ'),
  ('struct',
   'c:\\users\\javiersanchez\\appdata\\local\\programs\\python\\python37\\lib\\struct.pyo',
   'PYMODULE'),
  ('pyimod01_os_path',
   'c:\\users\\javiersanchez\\appdata\\local\\programs\\python\\python37\\lib\\site-packages\\PyInstaller\\loader\\pyimod01_os_path.pyc',
   'PYMODULE'),
  ('pyimod02_archive',
   'c:\\users\\javiersanchez\\appdata\\local\\programs\\python\\python37\\lib\\site-packages\\PyInstaller\\loader\\pyimod02_archive.pyc',
   'PYMODULE'),
  ('pyimod03_importers',
   'c:\\users\\javiersanchez\\appdata\\local\\programs\\python\\python37\\lib\\site-packages\\PyInstaller\\loader\\pyimod03_importers.pyc',
   'PYMODULE'),
  ('pyiboot01_bootstrap',
   'c:\\users\\javiersanchez\\appdata\\local\\programs\\python\\python37\\lib\\site-packages\\PyInstaller\\loader\\pyiboot01_bootstrap.py',
   'PYSOURCE'),
  ('pyi_rth_pyqt5',
   'c:\\users\\javiersanchez\\appdata\\local\\programs\\python\\python37\\lib\\site-packages\\PyInstaller\\loader\\rthooks\\pyi_rth_pyqt5.py',
   'PYSOURCE'),
  ('00039315',
   'C:\\Users\\JavierSanchez\\Desktop\\Desafio\\00039315.py',
   'PYSOURCE'),
  ('python37.dll',
   'c:\\users\\javiersanchez\\appdata\\local\\programs\\python\\python37\\python37.dll',
   'BINARY'),
  ('VCRUNTIME140.dll',
   'c:\\users\\javiersanchez\\appdata\\local\\programs\\python\\python37\\VCRUNTIME140.dll',
   'BINARY'),
  ('PyQt5\\Qt\\plugins\\imageformats\\qtga.dll',
   'C:\\users\\javiersanchez\\appdata\\local\\programs\\python\\python37\\lib\\site-packages\\PyQt5\\Qt\\plugins\\imageformats\\qtga.dll',
   'BINARY'),
  ('PyQt5\\Qt\\plugins\\imageformats\\qtiff.dll',
   'C:\\users\\javiersanchez\\appdata\\local\\programs\\python\\python37\\lib\\site-packages\\PyQt5\\Qt\\plugins\\imageformats\\qtiff.dll',
   'BINARY'),
  ('libEGL.dll',
   'C:\\users\\javiersanchez\\appdata\\local\\programs\\python\\python37\\lib\\site-packages\\PyQt5\\Qt\\bin\\libEGL.dll',
   'BINARY'),
  ('PyQt5\\Qt\\plugins\\imageformats\\qico.dll',
   'C:\\users\\javiersanchez\\appdata\\local\\programs\\python\\python37\\lib\\site-packages\\PyQt5\\Qt\\plugins\\imageformats\\qico.dll',
   'BINARY'),
  ('PyQt5\\Qt\\plugins\\imageformats\\qicns.dll',
   'C:\\users\\javiersanchez\\appdata\\local\\programs\\python\\python37\\lib\\site-packages\\PyQt5\\Qt\\plugins\\imageformats\\qicns.dll',
   'BINARY'),
  ('PyQt5\\Qt\\plugins\\platforms\\qwindows.dll',
   'C:\\users\\javiersanchez\\appdata\\local\\programs\\python\\python37\\lib\\site-packages\\PyQt5\\Qt\\plugins\\platforms\\qwindows.dll',
   'BINARY'),
  ('PyQt5\\Qt\\plugins\\imageformats\\qjpeg.dll',
   'C:\\users\\javiersanchez\\appdata\\local\\programs\\python\\python37\\lib\\site-packages\\PyQt5\\Qt\\plugins\\imageformats\\qjpeg.dll',
   'BINARY'),
  ('PyQt5\\Qt\\plugins\\platformthemes\\qxdgdesktopportal.dll',
   'C:\\users\\javiersanchez\\appdata\\local\\programs\\python\\python37\\lib\\site-packages\\PyQt5\\Qt\\plugins\\platformthemes\\qxdgdesktopportal.dll',
   'BINARY'),
  ('PyQt5\\Qt\\plugins\\styles\\qwindowsvistastyle.dll',
   'C:\\users\\javiersanchez\\appdata\\local\\programs\\python\\python37\\lib\\site-packages\\PyQt5\\Qt\\plugins\\styles\\qwindowsvistastyle.dll',
   'BINARY'),
  ('PyQt5\\Qt\\plugins\\imageformats\\qwebp.dll',
   'C:\\users\\javiersanchez\\appdata\\local\\programs\\python\\python37\\lib\\site-packages\\PyQt5\\Qt\\plugins\\imageformats\\qwebp.dll',
   'BINARY'),
  ('PyQt5\\Qt\\plugins\\imageformats\\qsvg.dll',
   'C:\\users\\javiersanchez\\appdata\\local\\programs\\python\\python37\\lib\\site-packages\\PyQt5\\Qt\\plugins\\imageformats\\qsvg.dll',
   'BINARY'),
  ('PyQt5\\Qt\\plugins\\platforms\\qoffscreen.dll',
   'C:\\users\\javiersanchez\\appdata\\local\\programs\\python\\python37\\lib\\site-packages\\PyQt5\\Qt\\plugins\\platforms\\qoffscreen.dll',
   'BINARY'),
  ('opengl32sw.dll',
   'C:\\users\\javiersanchez\\appdata\\local\\programs\\python\\python37\\lib\\site-packages\\PyQt5\\Qt\\bin\\opengl32sw.dll',
   'BINARY'),
  ('d3dcompiler_47.dll',
   'C:\\users\\javiersanchez\\appdata\\local\\programs\\python\\python37\\lib\\site-packages\\PyQt5\\Qt\\bin\\d3dcompiler_47.dll',
   'BINARY'),
  ('PyQt5\\Qt\\plugins\\iconengines\\qsvgicon.dll',
   'C:\\users\\javiersanchez\\appdata\\local\\programs\\python\\python37\\lib\\site-packages\\PyQt5\\Qt\\plugins\\iconengines\\qsvgicon.dll',
   'BINARY'),
  ('libGLESv2.dll',
   'C:\\users\\javiersanchez\\appdata\\local\\programs\\python\\python37\\lib\\site-packages\\PyQt5\\Qt\\bin\\libGLESv2.dll',
   'BINARY'),
  ('PyQt5\\Qt\\plugins\\imageformats\\qwbmp.dll',
   'C:\\users\\javiersanchez\\appdata\\local\\programs\\python\\python37\\lib\\site-packages\\PyQt5\\Qt\\plugins\\imageformats\\qwbmp.dll',
   'BINARY'),
  ('PyQt5\\Qt\\plugins\\imageformats\\qgif.dll',
   'C:\\users\\javiersanchez\\appdata\\local\\programs\\python\\python37\\lib\\site-packages\\PyQt5\\Qt\\plugins\\imageformats\\qgif.dll',
   'BINARY'),
  ('PyQt5\\Qt\\plugins\\platforms\\qwebgl.dll',
   'C:\\users\\javiersanchez\\appdata\\local\\programs\\python\\python37\\lib\\site-packages\\PyQt5\\Qt\\plugins\\platforms\\qwebgl.dll',
   'BINARY'),
  ('PyQt5\\Qt\\plugins\\platforms\\qminimal.dll',
   'C:\\users\\javiersanchez\\appdata\\local\\programs\\python\\python37\\lib\\site-packages\\PyQt5\\Qt\\plugins\\platforms\\qminimal.dll',
   'BINARY'),
  ('_socket',
   'c:\\users\\javiersanchez\\appdata\\local\\programs\\python\\python37\\DLLs\\_socket.pyd',
   'EXTENSION'),
  ('_lzma',
   'c:\\users\\javiersanchez\\appdata\\local\\programs\\python\\python37\\DLLs\\_lzma.pyd',
   'EXTENSION'),
  ('_bz2',
   'c:\\users\\javiersanchez\\appdata\\local\\programs\\python\\python37\\DLLs\\_bz2.pyd',
   'EXTENSION'),
  ('select',
   'c:\\users\\javiersanchez\\appdata\\local\\programs\\python\\python37\\DLLs\\select.pyd',
   'EXTENSION'),
  ('_hashlib',
   'c:\\users\\javiersanchez\\appdata\\local\\programs\\python\\python37\\DLLs\\_hashlib.pyd',
   'EXTENSION'),
  ('_ssl',
   'c:\\users\\javiersanchez\\appdata\\local\\programs\\python\\python37\\DLLs\\_ssl.pyd',
   'EXTENSION'),
  ('unicodedata',
   'c:\\users\\javiersanchez\\appdata\\local\\programs\\python\\python37\\DLLs\\unicodedata.pyd',
   'EXTENSION'),
  ('pyexpat',
   'c:\\users\\javiersanchez\\appdata\\local\\programs\\python\\python37\\DLLs\\pyexpat.pyd',
   'EXTENSION'),
  ('_ctypes',
   'c:\\users\\javiersanchez\\appdata\\local\\programs\\python\\python37\\DLLs\\_ctypes.pyd',
   'EXTENSION'),
  ('_queue',
   'c:\\users\\javiersanchez\\appdata\\local\\programs\\python\\python37\\DLLs\\_queue.pyd',
   'EXTENSION'),
  ('PyQt5.sip',
   'c:\\users\\javiersanchez\\appdata\\local\\programs\\python\\python37\\lib\\site-packages\\PyQt5\\sip.cp37-win_amd64.pyd',
   'EXTENSION'),
  ('PyQt5.QtGui',
   'c:\\users\\javiersanchez\\appdata\\local\\programs\\python\\python37\\lib\\site-packages\\PyQt5\\QtGui.pyd',
   'EXTENSION'),
  ('PyQt5.QtWidgets',
   'c:\\users\\javiersanchez\\appdata\\local\\programs\\python\\python37\\lib\\site-packages\\PyQt5\\QtWidgets.pyd',
   'EXTENSION'),
  ('PyQt5.QtCore',
   'c:\\users\\javiersanchez\\appdata\\local\\programs\\python\\python37\\lib\\site-packages\\PyQt5\\QtCore.pyd',
   'EXTENSION'),
  ('Qt5Core.dll',
   'c:\\users\\javiersanchez\\appdata\\local\\programs\\python\\python37\\lib\\site-packages\\PyQt5\\Qt\\bin\\Qt5Core.dll',
   'BINARY'),
  ('Qt5Gui.dll',
   'c:\\users\\javiersanchez\\appdata\\local\\programs\\python\\python37\\lib\\site-packages\\PyQt5\\Qt\\bin\\Qt5Gui.dll',
   'BINARY'),
  ('Qt5DBus.dll',
   'c:\\users\\javiersanchez\\appdata\\local\\programs\\python\\python37\\lib\\site-packages\\PyQt5\\Qt\\bin\\Qt5DBus.dll',
   'BINARY'),
  ('Qt5Widgets.dll',
   'c:\\users\\javiersanchez\\appdata\\local\\programs\\python\\python37\\lib\\site-packages\\PyQt5\\Qt\\bin\\Qt5Widgets.dll',
   'BINARY'),
  ('Qt5Svg.dll',
   'c:\\users\\javiersanchez\\appdata\\local\\programs\\python\\python37\\lib\\site-packages\\PyQt5\\Qt\\bin\\Qt5Svg.dll',
   'BINARY'),
  ('VCRUNTIME140_1.dll',
   'C:\\users\\javiersanchez\\appdata\\local\\programs\\python\\python37\\lib\\site-packages\\PyQt5\\Qt\\bin\\VCRUNTIME140_1.dll',
   'BINARY'),
  ('MSVCP140.dll',
   'C:\\users\\javiersanchez\\appdata\\local\\programs\\python\\python37\\lib\\site-packages\\PyQt5\\Qt\\bin\\MSVCP140.dll',
   'BINARY'),
  ('Qt5Quick.dll',
   'c:\\users\\javiersanchez\\appdata\\local\\programs\\python\\python37\\lib\\site-packages\\PyQt5\\Qt\\bin\\Qt5Quick.dll',
   'BINARY'),
  ('Qt5Network.dll',
   'c:\\users\\javiersanchez\\appdata\\local\\programs\\python\\python37\\lib\\site-packages\\PyQt5\\Qt\\bin\\Qt5Network.dll',
   'BINARY'),
  ('Qt5WebSockets.dll',
   'c:\\users\\javiersanchez\\appdata\\local\\programs\\python\\python37\\lib\\site-packages\\PyQt5\\Qt\\bin\\Qt5WebSockets.dll',
   'BINARY'),
  ('libcrypto-1_1-x64.dll',
   'c:\\users\\javiersanchez\\appdata\\local\\programs\\python\\python37\\DLLs\\libcrypto-1_1-x64.dll',
   'BINARY'),
  ('libssl-1_1-x64.dll',
   'c:\\users\\javiersanchez\\appdata\\local\\programs\\python\\python37\\DLLs\\libssl-1_1-x64.dll',
   'BINARY'),
  ('python3.dll',
   'c:\\users\\javiersanchez\\appdata\\local\\programs\\python\\python37\\python3.dll',
   'BINARY'),
  ('MSVCP140_1.dll',
   'c:\\users\\javiersanchez\\appdata\\local\\programs\\python\\python37\\lib\\site-packages\\PyQt5\\Qt\\bin\\MSVCP140_1.dll',
   'BINARY'),
  ('Qt5Qml.dll',
   'c:\\users\\javiersanchez\\appdata\\local\\programs\\python\\python37\\lib\\site-packages\\PyQt5\\Qt\\bin\\Qt5Qml.dll',
   'BINARY'),
  ('Qt5QmlModels.dll',
   'c:\\users\\javiersanchez\\appdata\\local\\programs\\python\\python37\\lib\\site-packages\\PyQt5\\Qt\\bin\\Qt5QmlModels.dll',
   'BINARY'),
  ('base_library.zip',
   'C:\\Users\\JavierSanchez\\Desktop\\Desafio\\build\\00039315\\base_library.zip',
   'DATA'),
  ('PyQt5\\Qt\\translations\\qtbase_ru.qm',
   'C:\\users\\javiersanchez\\appdata\\local\\programs\\python\\python37\\lib\\site-packages\\PyQt5\\Qt\\translations\\qtbase_ru.qm',
   'DATA'),
  ('PyQt5\\Qt\\translations\\qtbase_lv.qm',
   'C:\\users\\javiersanchez\\appdata\\local\\programs\\python\\python37\\lib\\site-packages\\PyQt5\\Qt\\translations\\qtbase_lv.qm',
   'DATA'),
  ('PyQt5\\Qt\\translations\\qtbase_ca.qm',
   'C:\\users\\javiersanchez\\appdata\\local\\programs\\python\\python37\\lib\\site-packages\\PyQt5\\Qt\\translations\\qtbase_ca.qm',
   'DATA'),
  ('PyQt5\\Qt\\translations\\qtbase_it.qm',
   'C:\\users\\javiersanchez\\appdata\\local\\programs\\python\\python37\\lib\\site-packages\\PyQt5\\Qt\\translations\\qtbase_it.qm',
   'DATA'),
  ('PyQt5\\Qt\\translations\\qtbase_fi.qm',
   'C:\\users\\javiersanchez\\appdata\\local\\programs\\python\\python37\\lib\\site-packages\\PyQt5\\Qt\\translations\\qtbase_fi.qm',
   'DATA'),
  ('PyQt5\\Qt\\translations\\qtbase_en.qm',
   'C:\\users\\javiersanchez\\appdata\\local\\programs\\python\\python37\\lib\\site-packages\\PyQt5\\Qt\\translations\\qtbase_en.qm',
   'DATA'),
  ('PyQt5\\Qt\\translations\\qtbase_es.qm',
   'C:\\users\\javiersanchez\\appdata\\local\\programs\\python\\python37\\lib\\site-packages\\PyQt5\\Qt\\translations\\qtbase_es.qm',
   'DATA'),
  ('PyQt5\\Qt\\translations\\qtbase_cs.qm',
   'C:\\users\\javiersanchez\\appdata\\local\\programs\\python\\python37\\lib\\site-packages\\PyQt5\\Qt\\translations\\qtbase_cs.qm',
   'DATA'),
  ('PyQt5\\Qt\\translations\\qtbase_fr.qm',
   'C:\\users\\javiersanchez\\appdata\\local\\programs\\python\\python37\\lib\\site-packages\\PyQt5\\Qt\\translations\\qtbase_fr.qm',
   'DATA'),
  ('PyQt5\\Qt\\translations\\qtbase_sk.qm',
   'C:\\users\\javiersanchez\\appdata\\local\\programs\\python\\python37\\lib\\site-packages\\PyQt5\\Qt\\translations\\qtbase_sk.qm',
   'DATA'),
  ('PyQt5\\Qt\\translations\\qtbase_de.qm',
   'C:\\users\\javiersanchez\\appdata\\local\\programs\\python\\python37\\lib\\site-packages\\PyQt5\\Qt\\translations\\qtbase_de.qm',
   'DATA'),
  ('PyQt5\\Qt\\translations\\qtbase_pl.qm',
   'C:\\users\\javiersanchez\\appdata\\local\\programs\\python\\python37\\lib\\site-packages\\PyQt5\\Qt\\translations\\qtbase_pl.qm',
   'DATA'),
  ('PyQt5\\Qt\\translations\\qtbase_da.qm',
   'C:\\users\\javiersanchez\\appdata\\local\\programs\\python\\python37\\lib\\site-packages\\PyQt5\\Qt\\translations\\qtbase_da.qm',
   'DATA'),
  ('PyQt5\\Qt\\translations\\qtbase_he.qm',
   'C:\\users\\javiersanchez\\appdata\\local\\programs\\python\\python37\\lib\\site-packages\\PyQt5\\Qt\\translations\\qtbase_he.qm',
   'DATA'),
  ('PyQt5\\Qt\\translations\\qtbase_zh_TW.qm',
   'C:\\users\\javiersanchez\\appdata\\local\\programs\\python\\python37\\lib\\site-packages\\PyQt5\\Qt\\translations\\qtbase_zh_TW.qm',
   'DATA'),
  ('PyQt5\\Qt\\translations\\qtbase_hu.qm',
   'C:\\users\\javiersanchez\\appdata\\local\\programs\\python\\python37\\lib\\site-packages\\PyQt5\\Qt\\translations\\qtbase_hu.qm',
   'DATA'),
  ('PyQt5\\Qt\\translations\\qtbase_ja.qm',
   'C:\\users\\javiersanchez\\appdata\\local\\programs\\python\\python37\\lib\\site-packages\\PyQt5\\Qt\\translations\\qtbase_ja.qm',
   'DATA'),
  ('PyQt5\\Qt\\translations\\qtbase_ko.qm',
   'C:\\users\\javiersanchez\\appdata\\local\\programs\\python\\python37\\lib\\site-packages\\PyQt5\\Qt\\translations\\qtbase_ko.qm',
   'DATA'),
  ('PyQt5\\Qt\\translations\\qtbase_uk.qm',
   'C:\\users\\javiersanchez\\appdata\\local\\programs\\python\\python37\\lib\\site-packages\\PyQt5\\Qt\\translations\\qtbase_uk.qm',
   'DATA'),
  ('PyQt5\\Qt\\translations\\qtbase_ar.qm',
   'C:\\users\\javiersanchez\\appdata\\local\\programs\\python\\python37\\lib\\site-packages\\PyQt5\\Qt\\translations\\qtbase_ar.qm',
   'DATA'),
  ('PyQt5\\Qt\\translations\\qtbase_bg.qm',
   'C:\\users\\javiersanchez\\appdata\\local\\programs\\python\\python37\\lib\\site-packages\\PyQt5\\Qt\\translations\\qtbase_bg.qm',
   'DATA'),
  ('PyQt5\\Qt\\translations\\qtbase_gd.qm',
   'C:\\users\\javiersanchez\\appdata\\local\\programs\\python\\python37\\lib\\site-packages\\PyQt5\\Qt\\translations\\qtbase_gd.qm',
   'DATA'),
  ('00039315.exe.manifest',
   'C:\\Users\\JavierSanchez\\Desktop\\Desafio\\build\\00039315\\00039315.exe.manifest',
   'BINARY'),
  ('pyi-windows-manifest-filename 00039315.exe.manifest', '', 'OPTION')],
 False,
 False,
 False,
 [])
